240 LA Restaurants
…
yelp2$Zip[yelp2$Zip == "11720"] <- "91604"

zip_summary <- yelp2 %>%
  filter(!is.na(Zip)) %>%
  group_by(Zip) %>%
  summarize(AverageRating = mean(StarRating, na.rm = TRUE),
            Count = n()) %>%
  arrange(desc(AverageRating))

zip_summary

## # A tibble: 36 x 3
##    Zip   AverageRating Count
##    <chr>         <dbl> <int>
##  1 90007          4.8     10
##  2 90018          4.8     10
##  3 90094          4.8     10
##  4 90006          4.65    20
##  5 90039          4.6     13
##  6 90004          4.5     88
##  7 90035          4.5     10
##  8 90057          4.5     22
##  9 90020          4.45   210
## 10 90010          4.44   142
## # i 26 more rows
…
# Convert to long format: term, topic, weight
terms_long <- terms_topics %>%
  pivot_longer(cols = -term, names_to = "topic", values_to = "weight")

# Get top N words by absolute weight per topic
top_words_per_topic <- terms_long %>%
  group_by(topic) %>%
  slice_max(order_by = abs(weight), n = 10) %>%
  arrange(topic, desc(abs(weight)))

print(top_words_per_topic)

## # A tibble: 5,411 x 3
## # Groups:   topic [541]
##    term   topic  weight
##    <chr>  <chr>   <dbl>
##  1 order  V1    -0.143 
##  2 like   V1    -0.127 
##  3 us     V1    -0.119 
##  4 tabl   V1    -0.115 
##  5 one    V1    -0.106 
##  6 dish   V1    -0.105 
##  7 just   V1    -0.104 
##  8 flavor V1    -0.101 
##  9 time   V1    -0.0984
## 10 get    V1    -0.0980
## # i 5,401 more rows
…
## Warning: There was 1 warning in `summarise()`.
## i In argument: `across(starts_with("V"), mean, na.rm = TRUE)`.
## i In group 1: `ethnicity = "American"`.
## Caused by warning:
## ! The `...` argument of `across()` is deprecated as of dplyr 1.1.0.
## Supply arguments directly to `.fns` through an anonymous function instead.
## 
##   # Previously
##   across(a:b, mean, na.rm = TRUE)
## 
##   # Now
##   across(a:b, \(x) mean(x, na.rm = TRUE))

## # A tibble: 22 x 12
##    ethnicity         V531      V532     V533     V534     V535     V536     V537
##    <chr>            <dbl>     <dbl>    <dbl>    <dbl>    <dbl>    <dbl>    <dbl>
##  1 American     -0.00206   0.00102   1.15e-3 -4.39e-4  5.03e-4  7.96e-4  2.56e-4
##  2 Argentine    -0.000604  0.000194 -7.84e-3  1.07e-3 -2.97e-3 -4.69e-3  1.93e-3
##  3 Asian Fusion  0.00413   0.000383 -3.67e-3 -1.63e-4  2.88e-4 -7.89e-4 -2.97e-3
##  4 Brazilian    -0.00250  -0.000657 -4.82e-4  1.76e-3  9.39e-4  1.59e-3  1.65e-3
##  5 Chinese      -0.00105   0.000258  1.81e-3  5.47e-5  6.37e-5  1.39e-4 -3.37e-3
##  6 Filipino     -0.00189   0.00587   3.19e-3  4.91e-3 -5.26e-3 -4.74e-3 -4.11e-3
##  7 French        0.00226   0.000547 -6.15e-4 -1.74e-3 -2.82e-3  9.42e-4 -9.09e-4
##  8 Indian       -0.0126   -0.0165    3.35e-3  1.34e-2 -3.74e-3  5.69e-3  2.01e-3
##  9 Italian      -0.00217  -0.000509 -7.16e-4  1.14e-3  3.22e-4 -1.15e-3 -2.05e-3
## 10 Japanese     -0.00111  -0.000671  1.55e-4  5.91e-4 -2.05e-3  9.72e-4 -3.91e-5
## # i 12 more rows
## # i 4 more variables: V538 <dbl>, V539 <dbl>, V540 <dbl>, V541 <dbl>
…
head(yelp2_postag)

## $token
## # A tibble: 251,380 x 11
##    doc_id   sid tid   token     token_with_ws lemma upos  xpos  feats tid_source
##  *  <int> <int> <chr> <chr>     <chr>         <chr> <chr> <chr> <chr> <chr>     
##  1      1     1 1     Great     "Great "      great ADJ   JJ    Degr~ 3         
##  2      1     1 2     ambiance  "ambiance "   ambi~ NOUN  NN    Numb~ 3         
##  3      1     1 3     indoors   "indoors "    indo~ NOUN  NNS   Numb~ 0         
##  4      1     1 4     and       "and "        and   CCONJ CC    <NA>  6         
##  5      1     1 5     attentive "attentive "  atte~ ADJ   JJ    Degr~ 6         
##  6      1     1 6     staff     "staff"       staff NOUN  NNS   Numb~ 3         
##  7      1     1 7     .         ". "          .     PUNCT .     <NA>  3         
##  8      1     2 1     Really    "Really "     real~ ADV   RB    <NA>  2         
##  9      1     2 2     great     "great "      great ADJ   JJ    Degr~ 3         
## 10      1     2 3     food      "food"        food  NOUN  NN    Numb~ 0         
## # i 251,370 more rows
## # i 1 more variable: relation <chr>
## 
## $document
## # A tibble: 2,381 x 14
##     Rank CommentDate Date       RestaurantName Address                StarRating
##    <dbl> <date>      <date>     <chr>          <chr>                       <dbl>
##  1     1 2023-09-16  2023-09-17 GRANVILLE      8701 Beverly Blvd Wes~        4.4
##  2     1 2023-09-15  2023-09-17 GRANVILLE      8701 Beverly Blvd Wes~        4.4
##  3     1 2023-09-07  2023-09-17 GRANVILLE      8701 Beverly Blvd Wes~        4.4
##  4     1 2023-09-06  2023-09-17 GRANVILLE      8701 Beverly Blvd Wes~        4.4
##  5     1 2023-09-05  2023-09-17 GRANVILLE      8701 Beverly Blvd Wes~        4.4
##  6     1 2023-09-04  2023-09-17 GRANVILLE      8701 Beverly Blvd Wes~        4.4
##  7     1 2023-09-03  2023-09-17 GRANVILLE      8701 Beverly Blvd Wes~        4.4
##  8     1 2023-09-03  2023-09-17 GRANVILLE      8701 Beverly Blvd Wes~        4.4
##  9     1 2023-08-31  2023-09-17 GRANVILLE      8701 Beverly Blvd Wes~        4.4
## 10     1 2023-08-31  2023-09-17 GRANVILLE      8701 Beverly Blvd Wes~        4.4
## # i 2,371 more rows
## # i 8 more variables: NumberOfReviews <dbl>, Style <chr>, Price <chr>,
## #   style_clean <chr>, ethnicity <chr>, food_type <chr>, Zip <chr>,
## #   doc_id <int>
…
full_sentiment_summary <- full_sentiment %>%
  group_by(lemma) %>%
  summarize(
    avg_sentiment = mean(ave_sentiment, na.rm = TRUE),
    count = n()
  ) %>%
  filter(count >= 30) %>%
  arrange(desc(avg_sentiment))

head(adj_sentiment_summary, 30)

## # A tibble: 30 x 3
##    lemma        avg_sentiment count
##    <chr>                <dbl> <int>
##  1 horrible         -0.0279      22
##  2 ridiculous       -0.0278      13
##  3 rude             -0.0179      39
##  4 poor             -0.0136      21
##  5 annoyed          -0.0126      10
##  6 terrible         -0.00981     27
##  7 worst            -0.000692    32
##  8 disappointed      0.0150      39
##  9 overpriced        0.0177      36
## 10 plain             0.0566      14
## # i 20 more rows

tail(adj_sentiment_summary, 30)

## # A tibble: 30 x 3
##    lemma      avg_sentiment count
##    <chr>              <dbl> <int>
##  1 pleasant           0.338    25
##  2 efficient          0.338    20
##  3 clean              0.339   101
##  4 top                0.341    54
##  5 true               0.342    17
##  6 yummy              0.344    81
##  7 elegant            0.344    14
##  8 delectable         0.346    10
##  9 delightful         0.346    30
## 10 culinary           0.347    25
## # i 20 more rows
…
